{
  "required": true,
  "package": "com.biom4st3r.position_leak_patch.mixin",
  "compatibilityLevel": "JAVA_8",
  "mixins": [
  ],
  "client": [
  ],
  "server":[
    "ServerPlayerNetworkHandlerMxn",
    "EntityPosPacketS2CPacketAccess"
  ],
  "injectors": {
    "defaultRequire": 1
  }
}
